Covid_Tweets_R_2
…
## Warning: `tbl_df()` is deprecated as of dplyr 1.0.0.
## Please use `tibble::as_tibble()` instead.
## This warning is displayed once every 8 hours.
## Call `lifecycle::last_warnings()` to see where this warning was generated.

# tweet_pairs

tweet_cor <- tweet_words %>% 
  group_by(word) %>% 
  filter(n() > 50) %>% 
  pairwise_cor(word, row, sort = T)

tweet_cor  

## # A tibble: 43,890 x 3
##    item1      item2 correlation
##    <chr>      <chr>       <dbl>
##  1 covid19    china         Inf
##  2 donald     china         Inf
##  3 pandemic   china         Inf
##  4 due        china         Inf
##  5 country    china         Inf
##  6 3          china         Inf
##  7 entrara    china         Inf
##  8 produccin china         Inf
##  9 countries  china         Inf
## 10 week       china         Inf
## #  with 43,880 more rows
…
